9
Coordinates from ORCA-job opt
  C   1.08743269253098      0.01797290039687      0.11734347052550
  O   0.36395874800521     -0.38664520823994     -0.76706104054746
  N   2.44199141639773     -0.00960835418847      0.09090794225686
  C   3.29615623735143      0.47448468569812      1.15672639682013
  H   0.69550756857435      0.45556789366768      1.05411137274951
  H   2.85944058306339     -0.42696004195273     -0.72638267161074
  H   2.74739736472506      0.46179568212222      2.09778692794279
  H   3.65843767515023      1.48928604936015      0.97490362891588
  H   4.15657771420143     -0.18395360686393      1.27232397294745
