9
Coordinates from ORCA-job opt
  C   1.37931328533916      0.28932128966545     -0.35401321138382
  O   1.40933843259924      1.47740334131148     -0.59983646376809
  N   2.20329438760962     -0.33422744072716      0.51900154298332
  C   3.22611058018559      0.38472679377142      1.25809494594728
  H   0.66161091755470     -0.40301211953644     -0.82882498259048
  H   2.10092125913930     -1.32514823541367      0.64805608966647
  H   2.78219836851059      1.19349969898824      1.83840824479309
  H   3.72595911138263     -0.30715597142665      1.93178557417005
  H   3.96275365767895      0.82091264336730      0.58234826018210
