9
Coordinates from ORCA-job opt
  C   1.20416103658059      0.24021683382231     -0.11686975624885
  O   0.76254308970786      1.30229232591945      0.26973907868253
  N   2.39680082058703     -0.27831063416542      0.25658786984948
  C   3.27090185718328      0.39840073153318      1.19830730534103
  H   0.66426968648515     -0.41019646833883     -0.82782599853674
  H   2.65534019673712     -1.18157280127231     -0.09924947026227
  H   3.39934555909467      1.43915001565818      0.90480483322224
  H   2.85822230406940      0.38152186994552      2.20872165877231
  H   4.23991544955479     -0.09518187310211      1.20080447918021
