9
Coordinates from ORCA-job opt
  C   1.58585067191796      0.13438601880270     -0.54268527612243
  O   2.16291060258498      0.90017326976343     -1.28634509438286
  N   1.98480154367088     -0.16362317830518      0.71521327521941
  C   3.17525608516087      0.42076890083598      1.30716154291565
  H   0.66120164755662     -0.39693335652503     -0.83021402774700
  H   1.43805522122011     -0.81907095548957      1.24497902710090
  H   3.20207131251540      0.17334265784941      2.36575703748373
  H   4.08119998788566      0.04354300734874      0.82975508000754
  H   3.16015292748717      1.50373363571948      1.19139843552494
