9
N-methyl formamide
C          1.13108       -0.01296        0.04029
O          0.37540        0.35142        0.92807
N          2.50050        0.00538        0.08560
C          3.23199        0.47623        1.23516
H          0.76126       -0.40733       -0.92122
H          3.01500       -0.32453       -0.72011
H          2.56394        0.80382        2.03534
H          3.86520        1.30931        0.91978
H          3.86534       -0.33870        1.59465
