9
N-methyl formamide
C          1.12610       -0.00737        0.05431
O          0.50653       -0.40172       -0.92337
N          2.48732        0.01495        0.10843
C          3.24682        0.47661        1.23924
H          0.63186        0.36030        0.96793
H          2.96129       -0.31938       -0.72244
H          2.58933        0.80639        2.04750
H          3.87848        1.30625        0.91267
H          3.87917       -0.34411        1.58637
9
N-methyl formamide
C          1.13153       -0.01277        0.04071
O          0.37595        0.35063        0.92923
N          2.50071        0.00547        0.08544
C          3.23157        0.47611        1.23503
H          0.76131       -0.40605       -0.92095
H          3.01673       -0.32412       -0.71966
H          2.56300        0.80354        2.03476
H          3.86441        1.30916        0.91903
H          3.86451       -0.33929        1.59395
