9
Coordinates from ORCA-job opt
  C   1.13655499858701      0.13442651837048      0.01214048422444
  O   0.51939415029358      0.91585190939572      0.70480312410715
  N   2.45178399661178     -0.16613056690173      0.14526066753502
  C   3.30251455064294      0.42554773530940      1.16077719171320
  H   0.66635092462467     -0.42432672161486     -0.81619620527585
  H   2.84395619974837     -0.83429516535225     -0.49539275180997
  H   4.00804609839638      1.13742957702598      0.72738024536042
  H   2.66437655162038      0.95447440766617      1.86362768576068
  H   3.85852252947482     -0.34665769389892      1.69261955838487
