6
Coordinates from ORCA-job opt
  C   1.05306410749326     -0.07980000440727     -0.04881669393292
  C   2.37802205131861     -0.07980001463196     -0.04881670083703
  H   0.48381259372160     -0.55169554605947     -0.83985331770590
  H   0.48381276751872      0.39209555578795      0.74222001788575
  H   2.94727433368444     -0.55169592722177     -0.83985393367620
  H   2.94727414626335      0.39209593653251      0.74222062826629
