9
Coordinates from ORCA-job opt
  C   1.20211184194620      0.26928363840249     -0.14602739144301
  O   0.40247146567054     -0.29864915163762     -0.85874652098980
  N   2.31499529010081     -0.29479357750127      0.38116110164438
  C   3.26885866662147      0.40643738540174      1.22074802325645
  H   1.08826047118866      1.32898262596430      0.14934326610698
  H   2.46167681505828     -1.26913655504755      0.17004405152412
  H   3.83332957585811     -0.31763487222268      1.80443945584323
  H   2.75394928585447      1.07242738647457      1.91302711127909
  H   3.98124658770112      0.99502312016596      0.63667090277846
