9
Coordinates from ORCA-job opt
  C   1.20557325240519     -0.37223632171438      0.13567965859715
  O   0.41129698090347     -0.51966251853989     -0.76792030687464
  N   2.32022899958803      0.39659481189484      0.07523672258272
  C   3.26711568084635      0.56785385789028      1.15586722878885
  H   1.08999079156668     -0.86536604835667      1.11862487326327
  H   2.47863816285447      0.87231845814750     -0.79986033093581
  H   3.32716890864494      1.60979644820147      1.47648839646009
  H   4.26576407526563      0.23199406191913      0.87008291676284
  H   2.94112314792516     -0.02935274944229      2.00646084135547
