9
Coordinates from ORCA-job opt
  C   1.23490911149968      0.28089330576273     -0.19622267595722
  O   0.40997808567087     -0.29837941248013     -0.87017206176275
  N   2.27590011463893     -0.30892798410818      0.43815986110867
  C   3.25475670287957      0.40563315289789      1.23922531696082
  H   1.20896718330506      1.37494367233889     -0.03548877928526
  H   2.35479151420645     -1.30734885853400      0.32969843285216
  H   3.97680445750787     -0.30888398264862      1.62669319410698
  H   2.79215483010573      0.90888160681397      2.09026705646161
  H   3.79863800018546      1.14512849995741      0.64849965551490
