9
Coordinates from ORCA-job opt
  C   1.09230370788718     -0.05946079596397      0.14758818655120
  O   0.36589357385591     -0.41044715306440     -0.75677839949608
  N   2.43995886474315      0.06044807626554      0.06498407508463
  C   3.29991053264416      0.47692102579238      1.15184090656370
  H   0.71020654489339      0.20328003613593      1.15124584097520
  H   2.84774731267460     -0.15682048485279     -0.83154743722106
  H   2.68040890088987      0.75402357023413      2.00372488730497
  H   3.89681814750349      1.34725429387832      0.87402101928029
  H   3.97365241490808     -0.32325856842517      1.46558092095706
