9
Coordinates from ORCA-job opt
  C   1.25350187712427     -0.43552707481181      0.09702036615824
  O   0.43064050273422     -0.54377534849680     -0.78674582390586
  N   2.26927015126063      0.46085195522558      0.11067764464284
  C   3.25582667450714      0.57029797571385      1.16751395427403
  H   1.24561200835025     -1.07426790538536      0.99976642271574
  H   2.31230236705185      1.09259826002510     -0.67362557423426
  H   3.57560291458177      1.60629875570934      1.26681081566507
  H   4.14217534103782     -0.03982659815653      0.97337469252294
  H   2.82196816335200      0.25528998017661      2.11586750216122
