9
N-methyl formamide
C          1.14353       -0.03068       -0.00305
O          0.44445        0.34887        0.92427
N          2.49916        0.00060        0.07333
C          3.22549        0.47558        1.23373
H          0.66740       -0.40016       -0.90573
H          3.04363       -0.33094       -0.73669
H          2.54871        0.80910        2.04855
H          3.86867        1.33102        0.93942
H          3.86867       -0.34071        1.62370
