
                                 *****************
                                 * O   R   C   A *
                                 *****************

                                            #,                                       
                                            ###                                      
                                            ####                                     
                                            #####                                    
                                            ######                                   
                                           ########,                                 
                                     ,,################,,,,,                         
                               ,,#################################,,                 
                          ,,##########################################,,             
                       ,#########################################, ''#####,          
                    ,#############################################,,   '####,        
                  ,##################################################,,,,####,       
                ,###########''''           ''''###############################       
              ,#####''   ,,,,##########,,,,          '''####'''          '####       
            ,##' ,,,,###########################,,,                        '##       
           ' ,,###''''                  '''############,,,                           
         ,,##''                                '''############,,,,        ,,,,,,###''
      ,#''                                            '''#######################'''  
     '                                                          ''''####''''         
             ,#######,   #######,   ,#######,      ##                                
            ,#'     '#,  ##    ##  ,#'     '#,    #''#        ######   ,####,        
            ##       ##  ##   ,#'  ##            #'  '#       #        #'  '#        
            ##       ##  #######   ##           ,######,      #####,   #    #        
            '#,     ,#'  ##    ##  '#,     ,#' ,#      #,         ##   #,  ,#        
             '#######'   ##     ##  '#######'  #'      '#     #####' # '####'        



                  #######################################################
                  #                        -***-                        #
                  #          Department of theory and spectroscopy      #
                  #    Directorship and core code : Frank Neese         #
                  #        Max Planck Institute fuer Kohlenforschung    #
                  #                Kaiser Wilhelm Platz 1               #
                  #                 D-45470 Muelheim/Ruhr               #
                  #                      Germany                        #
                  #                                                     #
                  #                  All rights reserved                #
                  #                        -***-                        #
                  #######################################################


                         Program Version 5.0.3 -  RELEASE  -


 With contributions from (in alphabetic order):
   Daniel Aravena         : Magnetic Suceptibility
   Michael Atanasov       : Ab Initio Ligand Field Theory (pilot matlab implementation)
   Alexander A. Auer      : GIAO ZORA, VPT2 properties, NMR spectrum
   Ute Becker             : Parallelization
   Giovanni Bistoni       : ED, misc. LED, open-shell LED, HFLD
   Martin Brehm           : Molecular dynamics
   Dmytro Bykov           : SCF Hessian
   Vijay G. Chilkuri      : MRCI spin determinant printing, contributions to CSF-ICE
   Dipayan Datta          : RHF DLPNO-CCSD density
   Achintya Kumar Dutta   : EOM-CC, STEOM-CC
   Dmitry Ganyushin       : Spin-Orbit,Spin-Spin,Magnetic field MRCI
   Miquel Garcia          : C-PCM and meta-GGA Hessian, CC/C-PCM, Gaussian charge scheme
   Yang Guo               : DLPNO-NEVPT2, F12-NEVPT2, CIM, IAO-localization
   Andreas Hansen         : Spin unrestricted coupled pair/coupled cluster methods
   Benjamin Helmich-Paris : MC-RPA, TRAH-SCF, COSX integrals
   Lee Huntington         : MR-EOM, pCC
   Robert Izsak           : Overlap fitted RIJCOSX, COSX-SCS-MP3, EOM
   Marcus Kettner         : VPT2
   Christian Kollmar      : KDIIS, OOCD, Brueckner-CCSD(T), CCSD density, CASPT2, CASPT2-K
   Simone Kossmann        : Meta GGA functionals, TD-DFT gradient, OOMP2, MP2 Hessian
   Martin Krupicka        : Initial AUTO-CI
   Lucas Lang             : DCDCAS
   Marvin Lechner         : AUTO-CI (C++ implementation), FIC-MRCC
   Dagmar Lenk            : GEPOL surface, SMD
   Dimitrios Liakos       : Extrapolation schemes; Compound Job, initial MDCI parallelization
   Dimitrios Manganas     : Further ROCIS development; embedding schemes
   Dimitrios Pantazis     : SARC Basis sets
   Anastasios Papadopoulos: AUTO-CI, single reference methods and gradients
   Taras Petrenko         : DFT Hessian,TD-DFT gradient, ASA, ECA, R-Raman, ABS, FL, XAS/XES, NRVS
   Peter Pinski           : DLPNO-MP2, DLPNO-MP2 Gradient
   Christoph Reimann      : Effective Core Potentials
   Marius Retegan         : Local ZFS, SOC
   Christoph Riplinger    : Optimizer, TS searches, QM/MM, DLPNO-CCSD(T), (RO)-DLPNO pert. Triples
   Tobias Risthaus        : Range-separated hybrids, TD-DFT gradient, RPA, STAB
   Michael Roemelt        : Original ROCIS implementation
   Masaaki Saitow         : Open-shell DLPNO-CCSD energy and density
   Barbara Sandhoefer     : DKH picture change effects
   Avijit Sen             : IP-ROCIS
   Kantharuban Sivalingam : CASSCF convergence, NEVPT2, FIC-MRCI
   Bernardo de Souza      : ESD, SOC TD-DFT
   Georgi Stoychev        : AutoAux, RI-MP2 NMR, DLPNO-MP2 response
   Willem Van den Heuvel  : Paramagnetic NMR
   Boris Wezisla          : Elementary symmetry handling
   Frank Wennmohs         : Technical directorship


 We gratefully acknowledge several colleagues who have allowed us to
 interface, adapt or use parts of their codes:
   Stefan Grimme, W. Hujo, H. Kruse, P. Pracht,  : VdW corrections, initial TS optimization,
                  C. Bannwarth, S. Ehlert          DFT functionals, gCP, sTDA/sTD-DF
   Ed Valeev, F. Pavosevic, A. Kumar             : LibInt (2-el integral package), F12 methods
   Garnet Chan, S. Sharma, J. Yang, R. Olivares  : DMRG
   Ulf Ekstrom                                   : XCFun DFT Library
   Mihaly Kallay                                 : mrcc  (arbitrary order and MRCC methods)
   Jiri Pittner, Ondrej Demel                    : Mk-CCSD
   Frank Weinhold                                : gennbo (NPA and NBO analysis)
   Christopher J. Cramer and Donald G. Truhlar   : smd solvation model
   Lars Goerigk                                  : TD-DFT with DH, B97 family of functionals
   V. Asgeirsson, H. Jonsson                     : NEB implementation
   FAccTs GmbH                                   : IRC, NEB, NEB-TS, DLPNO-Multilevel, CI-OPT
                                                   MM, QMMM, 2- and 3-layer-ONIOM, Crystal-QMMM,
                                                   LR-CPCM, SF, NACMEs, symmetry and pop. for TD-DFT,
                                                   nearIR, NL-DFT gradient (VV10), updates on ESD,
                                                   ML-optimized integration grids
   S Lehtola, MJT Oliveira, MAL Marques          : LibXC Library
   Liviu Ungur et al                             : ANISO software


 Your calculation uses the libint2 library for the computation of 2-el integrals
 For citations please refer to: http://libint.valeyev.net

 Your ORCA version has been built with support for libXC version: 5.1.0
 For citations please refer to: https://tddft.org/programs/libxc/

 This ORCA versions uses:
   CBLAS   interface :  Fast vector & matrix operations
   LAPACKE interface :  Fast linear algebra routines
   SCALAPACK package :  Parallel linear algebra routines
   Shared memory     :  Shared parallel matrices
   BLAS/LAPACK       :  OpenBLAS 0.3.15  USE64BITINT DYNAMIC_ARCH NO_AFFINITY Zen SINGLE_THREADED
        Core in use  :  Zen
   Copyright (c) 2011-2014, The OpenBLAS Project




***************************************
The coordinates will be read from file: geom.xyz
***************************************



Warning: The global flag for chemical shieldings has been found
         but shieldings for certain elements have also been explicitly requested in the EPRNMR block
         ==>> only the requested shieldings will be calculated

================================================================================

----- Orbital basis set information -----
Your calculation utilizes the basis: def2-TZVPP
   F. Weigend and R. Ahlrichs, Phys. Chem. Chem. Phys. 7, 3297 (2005).

----- AuxJ basis set information -----
Your calculation utilizes the auxiliary basis: def2/J
   F. Weigend, Phys. Chem. Chem. Phys. 8, 1057 (2006).

================================================================================
                                        WARNINGS
                       Please study these warnings very carefully!
================================================================================


INFO   : the flag for use of the SHARK integral package has been found!

================================================================================
                                       INPUT FILE
================================================================================
NAME = nmr.com
|  1> ! B3LYP def2-TZVPP def2/J RIJCOSX NMR
|  2> 
|  3> * xyzFILE 0 1 geom.xyz
|  4> 
|  5> %MaxCore 32000
|  6> 
|  7> %pal nprocs 8
|  8> end
|  9> 
| 10> %EPRNMR
| 11>      NUCLEI = ALL {SHIFT}
| 12> END
| 13> 
| 14>                          ****END OF INPUT****
================================================================================

                       ****************************
                       * Single Point Calculation *
                       ****************************

---------------------------------
CARTESIAN COORDINATES (ANGSTROEM)
---------------------------------
  C      1.379312   -0.220854    0.005368
  C      0.505568   -1.302872   -0.008754
  C     -0.868486   -1.087243   -0.013656
  C     -1.369066    0.210348   -0.004419
  C     -0.495322    1.292368    0.009704
  C      0.878731    1.076738    0.014606
  H      2.448264   -0.388484    0.009163
  H      0.894867   -2.312414   -0.015928
  H     -1.548004   -1.929212   -0.024624
  H     -2.438018    0.377981   -0.008213
  H     -0.884623    2.301908    0.016884
  H      1.558247    1.918708    0.025569

----------------------------
CARTESIAN COORDINATES (A.U.)
----------------------------
  NO LB      ZA    FRAG     MASS         X           Y           Z
   0 C     6.0000    0    12.011    2.606522   -0.417354    0.010145
   1 C     6.0000    0    12.011    0.955386   -2.462072   -0.016542
   2 C     6.0000    0    12.011   -1.641200   -2.054592   -0.025807
   3 C     6.0000    0    12.011   -2.587160    0.397500   -0.008350
   4 C     6.0000    0    12.011   -0.936023    2.442221    0.018338
   5 C     6.0000    0    12.011    1.660561    2.034740    0.027601
   6 H     1.0000    0     1.008    4.626548   -0.734128    0.017316
   7 H     1.0000    0     1.008    1.691053   -4.369830   -0.030100
   8 H     1.0000    0     1.008   -2.925303   -3.645682   -0.046533
   9 H     1.0000    0     1.008   -4.607186    0.714281   -0.015521
  10 H     1.0000    0     1.008   -1.671696    4.349976    0.031905
  11 H     1.0000    0     1.008    2.944661    3.625832    0.048319

--------------------------------
INTERNAL COORDINATES (ANGSTROEM)
--------------------------------
 C      0   0   0     0.000000000000     0.00000000     0.00000000
 C      1   0   0     1.390823693893     0.00000000     0.00000000
 C      2   1   0     1.390879166219   120.00313815     0.00000000
 C      3   2   1     1.390830172986   120.01160462     0.00000000
 C      4   3   2     1.390825236000   119.98527729     0.00000000
 C      1   2   3     1.390831324461   119.98524351     0.00000000
 H      1   2   3     1.082022464026   120.00940712   180.00126020
 H      2   1   3     1.082025813317   119.99313196   179.99984723
 H      3   2   1     1.082024031218   119.98736430   180.00119353
 H      4   3   2     1.082022524725   120.00552733   180.00125974
 H      5   4   3     1.082025718311   119.99296994   179.99950277
 H      6   1   2     1.082024066878   120.00110248   180.00144356

---------------------------
INTERNAL COORDINATES (A.U.)
---------------------------
 C      0   0   0     0.000000000000     0.00000000     0.00000000
 C      1   0   0     2.628275882026     0.00000000     0.00000000
 C      2   1   0     2.628380709531   120.00313815     0.00000000
 C      3   2   1     2.628288125737   120.01160462     0.00000000
 C      4   3   2     2.628278796187   119.98527729     0.00000000
 C      1   2   3     2.628290301711   119.98524351     0.00000000
 H      1   2   3     2.044726127760   120.00940712   180.00126020
 H      2   1   3     2.044732457002   119.99313196   179.99984723
 H      3   2   1     2.044729089323   119.98736430   180.00119353
 H      4   3   2     2.044726242464   120.00552733   180.00125974
 H      5   4   3     2.044732277468   119.99296994   179.99950277
 H      6   1   2     2.044729156710   120.00110248   180.00144356

---------------------
BASIS SET INFORMATION
---------------------
There are 2 groups of distinct atoms

 Group   1 Type C   : 11s6p2d1f contracted to 5s3p2d1f pattern {62111/411/11/1}
 Group   2 Type H   : 5s2p1d contracted to 3s2p1d pattern {311/11/1}

Atom   0C    basis set group =>   1
Atom   1C    basis set group =>   1
Atom   2C    basis set group =>   1
Atom   3C    basis set group =>   1
Atom   4C    basis set group =>   1
Atom   5C    basis set group =>   1
Atom   6H    basis set group =>   2
Atom   7H    basis set group =>   2
Atom   8H    basis set group =>   2
Atom   9H    basis set group =>   2
Atom  10H    basis set group =>   2
Atom  11H    basis set group =>   2
---------------------------------
AUXILIARY/J BASIS SET INFORMATION
---------------------------------
There are 2 groups of distinct atoms

 Group   1 Type C   : 12s5p4d2f1g contracted to 6s4p3d1f1g pattern {711111/2111/211/2/1}
 Group   2 Type H   : 5s2p1d contracted to 3s1p1d pattern {311/2/1}

Atom   0C    basis set group =>   1
Atom   1C    basis set group =>   1
Atom   2C    basis set group =>   1
Atom   3C    basis set group =>   1
Atom   4C    basis set group =>   1
Atom   5C    basis set group =>   1
Atom   6H    basis set group =>   2
Atom   7H    basis set group =>   2
Atom   8H    basis set group =>   2
Atom   9H    basis set group =>   2
Atom  10H    basis set group =>   2
Atom  11H    basis set group =>   2


           ************************************************************
           *        Program running with 8 parallel MPI-processes     *
           *              working on a common directory               *
           ************************************************************
------------------------------------------------------------------------------
                           ORCA GTO INTEGRAL CALCULATION
                           -- RI-GTO INTEGRALS CHOSEN --
------------------------------------------------------------------------------
------------------------------------------------------------------------------
                   ___                                                        
                  /   \      - P O W E R E D   B Y -                         
                 /     \                                                     
                 |  |  |   _    _      __       _____    __    __             
                 |  |  |  | |  | |    /  \     |  _  \  |  |  /  |          
                  \  \/   | |  | |   /    \    | | | |  |  | /  /          
                 / \  \   | |__| |  /  /\  \   | |_| |  |  |/  /          
                |  |  |   |  __  | /  /__\  \  |    /   |      \           
                |  |  |   | |  | | |   __   |  |    \   |  |\   \          
                \     /   | |  | | |  |  |  |  | |\  \  |  | \   \       
                 \___/    |_|  |_| |__|  |__|  |_| \__\ |__|  \__/        
                                                                              
                      - O R C A' S   B I G   F R I E N D -                    
                                      &                                       
                       - I N T E G R A L  F E E D E R -                       
                                                                              
 v1 FN, 2020, v2 2021                                                         
------------------------------------------------------------------------------


Reading SHARK input file nmr.SHARKINP.tmp ... ok
----------------------
SHARK INTEGRAL PACKAGE
----------------------

Number of atoms                             ...     12
Number of basis functions                   ...    270
Number of shells                            ...    102
Maximum angular momentum                    ...      3
Integral batch strategy                     ... SHARK/LIBINT Hybrid
RI-J (if used) integral strategy            ... SPLIT-RIJ (Revised 2003 algorithm where possible)
Printlevel                                  ...      1
Contraction scheme used                     ... SEGMENTED contraction
Coulomb Range Separation                    ... NOT USED
Exchange Range Separation                   ... NOT USED
Finite Nucleus Model                        ... NOT USED
Auxiliary Coulomb fitting basis             ... AVAILABLE
   # of basis functions in Aux-J            ...    360
   # of shells in Aux-J                     ...    120
   Maximum angular momentum in Aux-J        ...      4
Auxiliary J/K fitting basis                 ... NOT available
Auxiliary Correlation fitting basis         ... NOT available
Auxiliary 'external' fitting basis          ... NOT available
Integral threshold                          ...     1.000000e-10
Primitive cut-off                           ...     1.000000e-11
Primitive pair pre-selection threshold      ...     1.000000e-11

Calculating pre-screening integrals         ... done (  0.0 sec) Dimension = 102
Organizing shell pair data                  ... done (  0.0 sec)
Shell pair information
Total number of shell pairs                 ...      5253
Shell pairs after pre-screening             ...      5008
Total number of primitive shell pairs       ...     14346
Primitive shell pairs kept                  ...     11084
          la=0 lb=0:   1089 shell pairs
          la=1 lb=0:   1386 shell pairs
          la=1 lb=1:    456 shell pairs
          la=2 lb=0:    802 shell pairs
          la=2 lb=1:    516 shell pairs
          la=2 lb=2:    162 shell pairs
          la=3 lb=0:    288 shell pairs
          la=3 lb=1:    180 shell pairs
          la=3 lb=2:    108 shell pairs
          la=3 lb=3:     21 shell pairs

Calculating one electron integrals          ... done (  0.0 sec)
Calculating RI/J V-Matrix + Cholesky decomp.... done (  0.0 sec)
Calculating Nuclear repulsion               ... done (  0.0 sec) ENN=    204.043951814306 Eh

SHARK setup successfully completed in   0.2 seconds

Maximum memory used throughout the entire GTOINT-calculation: 18.5 MB


           ************************************************************
           *        Program running with 8 parallel MPI-processes     *
           *              working on a common directory               *
           ************************************************************
-------------------------------------------------------------------------------
                                 ORCA SCF
-------------------------------------------------------------------------------

------------
SCF SETTINGS
------------
Hamiltonian:
 Density Functional     Method          .... DFT(GTOs)
 Exchange Functional    Exchange        .... B88
   X-Alpha parameter    XAlpha          ....  0.666667
   Becke's b parameter  XBeta           ....  0.004200
 Correlation Functional Correlation     .... LYP
 LDA part of GGA corr.  LDAOpt          .... VWN-5
 Gradients option       PostSCFGGA      .... off
 Hybrid DFT is turned on
   Fraction HF Exchange ScalHFX         ....  0.200000
   Scaling of DF-GGA-X  ScalDFX         ....  0.720000
   Scaling of DF-GGA-C  ScalDFC         ....  0.810000
   Scaling of DF-LDA-C  ScalLDAC        ....  1.000000
   Perturbative correction              ....  0.000000
   Density functional embedding theory  .... OFF
   NL short-range parameter             ....  4.800000
 RI-approximation to the Coulomb term is turned on
   Number of AuxJ basis functions       .... 360
   RIJ-COSX (HFX calculated with COS-X)).... on


General Settings:
 Integral files         IntName         .... nmr
 Hartree-Fock type      HFTyp           .... RHF
 Total Charge           Charge          ....    0
 Multiplicity           Mult            ....    1
 Number of Electrons    NEL             ....   42
 Basis Dimension        Dim             ....  270
 Nuclear Repulsion      ENuc            ....    204.0439518143 Eh

Convergence Acceleration:
 DIIS                   CNVDIIS         .... on
   Start iteration      DIISMaxIt       ....    12
   Startup error        DIISStart       ....  0.200000
   # of expansion vecs  DIISMaxEq       ....     5
   Bias factor          DIISBfac        ....   1.050
   Max. coefficient     DIISMaxC        ....  10.000
 Trust-Rad. Augm. Hess. CNVTRAH         .... auto
   Auto Start mean grad. ratio tolernc. ....  1.125000
   Auto Start start iteration           ....    20
   Auto Start num. interpolation iter.  ....    10
   Max. Number of Micro iterations      ....    16
   Max. Number of Macro iterations      .... Maxiter - #DIIS iter
   Number of Davidson start vectors     ....     2
   Converg. threshold I  (grad. norm)   ....   5.000e-05
   Converg. threshold II (energy diff.) ....   1.000e-06
   Grad. Scal. Fac. for Micro threshold ....   0.100
   Minimum threshold for Micro iter.    ....   0.010
   NR start threshold (gradient norm)   ....   0.001
   Initial trust radius                 ....   0.400
   Minimum AH scaling param. (alpha)    ....   1.000
   Maximum AH scaling param. (alpha)    .... 1000.000
   Orbital update algorithm             .... Taylor
   White noise on init. David. guess    .... on
   Maximum white noise                  ....   0.010
   Quad. conv. algorithm                .... NR
 SOSCF                  CNVSOSCF        .... on
   Start iteration      SOSCFMaxIt      ....   150
   Startup grad/error   SOSCFStart      ....  0.003300
 Level Shifting         CNVShift        .... on
   Level shift para.    LevelShift      ....    0.2500
   Turn off err/grad.   ShiftErr        ....    0.0010
 Zerner damping         CNVZerner       .... off
 Static damping         CNVDamp         .... on
   Fraction old density DampFac         ....    0.7000
   Max. Damping (<1)    DampMax         ....    0.9800
   Min. Damping (>=0)   DampMin         ....    0.0000
   Turn off err/grad.   DampErr         ....    0.1000
 Fernandez-Rico         CNVRico         .... off

SCF Procedure:
 Maximum # iterations   MaxIter         ....   125
 SCF integral mode      SCFMode         .... Direct
   Integral package                     .... SHARK and LIBINT hybrid scheme
 Reset frequency        DirectResetFreq ....    20
 Integral Threshold     Thresh          ....  1.000e-10 Eh
 Primitive CutOff       TCut            ....  1.000e-11 Eh

Convergence Tolerance:
 Convergence Check Mode ConvCheckMode   .... Total+1el-Energy
 Convergence forced     ConvForced      .... 0
 Energy Change          TolE            ....  1.000e-06 Eh
 1-El. energy change                    ....  1.000e-03 Eh
 Orbital Gradient       TolG            ....  5.000e-05
 Orbital Rotation angle TolX            ....  5.000e-05
 DIIS Error             TolErr          ....  1.000e-06


Diagonalization of the overlap matrix:
Smallest eigenvalue                        ... 1.012e-05
Time for diagonalization                   ...    0.008 sec
Threshold for overlap eigenvalues          ... 1.000e-08
Number of eigenvalues below threshold      ... 0
Time for construction of square roots      ...    0.005 sec
Total time needed                          ...    0.013 sec

Time for model grid setup =    0.040 sec

------------------------------
INITIAL GUESS: MODEL POTENTIAL
------------------------------
Loading Hartree-Fock densities                     ... done
Calculating cut-offs                               ... done
Initializing the effective Hamiltonian             ... done
Setting up the integral package (SHARK)            ... done
Starting the Coulomb interaction                   ... done (   0.0 sec)
Reading the grid                                   ... done
Mapping shells                                     ... done
Starting the XC term evaluation                    ... done (   0.0 sec)
  promolecular density results
     # of electrons  =     41.997113702
     EX              =    -32.618346879
     EC              =     -1.378179442
     EX+EC           =    -33.996526321
Transforming the Hamiltonian                       ... done (   0.0 sec)
Diagonalizing the Hamiltonian                      ... done (   0.0 sec)
Back transforming the eigenvectors                 ... done (   0.0 sec)
Now organizing SCF variables                       ... done
                      ------------------
                      INITIAL GUESS DONE (   0.1 sec)
                      ------------------
-------------------
DFT GRID GENERATION
-------------------

General Integration Accuracy     IntAcc      ... 4.388
Radial Grid Type                 RadialGrid  ... OptM3 with GC (2021)
Angular Grid (max. ang.)         AngularGrid ... 4 (Lebedev-302)
Angular grid pruning method      GridPruning ... 4 (adaptive)
Weight generation scheme         WeightScheme... Becke
Basis function cutoff            BFCut       ... 1.0000e-10
Integration weight cutoff        WCut        ... 1.0000e-14
Angular grids for H and He will be reduced by one unit
Partially contracted basis set               ... off
Rotationally invariant grid construction     ... off

Total number of grid points                  ...    55542
Total number of batches                      ...      876
Average number of points per batch           ...       63
Average number of grid points per atom       ...     4628
Time for grid setup =    0.240 sec

--------------------
COSX GRID GENERATION
--------------------

GRIDX 1
-------
General Integration Accuracy     IntAcc      ... 3.816
Radial Grid Type                 RadialGrid  ... OptM3 with GC (2021)
Angular Grid (max. ang.)         AngularGrid ... 1 (Lebedev-50)
Angular grid pruning method      GridPruning ... 4 (adaptive)
Weight generation scheme         WeightScheme... Becke
Basis function cutoff            BFCut       ... 1.0000e-10
Integration weight cutoff        WCut        ... 1.0000e-14
Angular grids for H and He will be reduced by one unit
Partially contracted basis set               ... on
Rotationally invariant grid construction     ... off

Total number of grid points                  ...     7130
Total number of batches                      ...      114
Average number of points per batch           ...       62
Average number of grid points per atom       ...      594
UseSFitting                                  ... on

GRIDX 2
-------
General Integration Accuracy     IntAcc      ... 4.020
Radial Grid Type                 RadialGrid  ... OptM3 with GC (2021)
Angular Grid (max. ang.)         AngularGrid ... 2 (Lebedev-110)
Angular grid pruning method      GridPruning ... 4 (adaptive)
Weight generation scheme         WeightScheme... Becke
Basis function cutoff            BFCut       ... 1.0000e-10
Integration weight cutoff        WCut        ... 1.0000e-14
Angular grids for H and He will be reduced by one unit
Partially contracted basis set               ... on
Rotationally invariant grid construction     ... off

Total number of grid points                  ...    15508
Total number of batches                      ...      248
Average number of points per batch           ...       62
Average number of grid points per atom       ...     1292
UseSFitting                                  ... on

GRIDX 3
-------
General Integration Accuracy     IntAcc      ... 4.338
Radial Grid Type                 RadialGrid  ... OptM3 with GC (2021)
Angular Grid (max. ang.)         AngularGrid ... 3 (Lebedev-194)
Angular grid pruning method      GridPruning ... 4 (adaptive)
Weight generation scheme         WeightScheme... Becke
Basis function cutoff            BFCut       ... 1.0000e-10
Integration weight cutoff        WCut        ... 1.0000e-14
Angular grids for H and He will be reduced by one unit
Partially contracted basis set               ... on
Rotationally invariant grid construction     ... off

Total number of grid points                  ...    34088
Total number of batches                      ...      538
Average number of points per batch           ...       63
Average number of grid points per atom       ...     2841
UseSFitting                                  ... on

Time for X-Grid setup             =    0.200 sec

--------------
SCF ITERATIONS
--------------
ITER       Energy         Delta-E        Max-DP      RMS-DP      [F,P]     Damp
               ***  Starting incremental Fock matrix formation  ***
  0   -232.0161130843   0.000000000000 0.02893536  0.00085956  0.1514129 0.7000
  1   -232.0931081271  -0.076995042710 0.01810331  0.00061054  0.0792369 0.7000
                               ***Turning on DIIS***
  2   -232.1258842218  -0.032776094747 0.02960040  0.00101845  0.0321141 0.0000
  3   -232.1724548185  -0.046570596685 0.01098326  0.00039827  0.0438481 0.0000
  4   -232.1854234601  -0.012968641567 0.00357988  0.00013383  0.0078737 0.0000
                      *** Initiating the SOSCF procedure ***
                           *** Shutting down DIIS ***
                      *** Re-Reading the Fockian *** 
                      *** Removing any level shift *** 
ITER      Energy       Delta-E        Grad      Rot      Max-DP    RMS-DP
  5   -232.18599420  -0.0005707420  0.000738  0.000738  0.001824  0.000056
               *** Restarting incremental Fock matrix formation ***
  6   -232.18601005  -0.0000158492  0.000246  0.000489  0.001251  0.000056
  7   -232.18601120  -0.0000011488  0.000150  0.000144  0.000232  0.000011
  8   -232.18601178  -0.0000005822  0.000059  0.000058  0.000129  0.000006
                 **** Energy Check signals convergence ****
              ***Rediagonalizing the Fockian in SOSCF/NRSCF***

               *****************************************************
               *                     SUCCESS                       *
               *           SCF CONVERGED AFTER   9 CYCLES          *
               *****************************************************

Old exchange energy                            =     -6.651304082 Eh
New exchange energy                            =     -6.651306674 Eh
Exchange energy change after final integration =     -0.000002593 Eh
Total energy after final integration           =   -232.186014420 Eh
Final COS-X integration done in                =     1.425 sec

----------------
TOTAL SCF ENERGY
----------------

Total Energy       :         -232.18601442 Eh           -6318.10266 eV

Components:
Nuclear Repulsion  :          204.04395181 Eh            5552.31820 eV
Electronic Energy  :         -436.22996623 Eh          -11870.42086 eV
One Electron Energy:         -715.43411529 Eh          -19467.95201 eV
Two Electron Energy:          279.20414906 Eh            7597.53115 eV
Max COSX asymmetry :            0.00000056 Eh               0.00002 eV

Virial components:
Potential Energy   :         -463.27586780 Eh          -12606.37726 eV
Kinetic Energy     :          231.08985338 Eh            6288.27460 eV
Virial Ratio       :            2.00474344


DFT components:
N(Alpha)           :       20.999972404814 electrons
N(Beta)            :       20.999972404814 electrons
N(Total)           :       41.999944809628 electrons
E(X)               :      -26.404966496711 Eh       
E(C)               :       -1.636230973196 Eh       
E(XC)              :      -28.041197469907 Eh       
DFET-embed. en.    :        0.000000000000 Eh       

---------------
SCF CONVERGENCE
---------------

  Last Energy change         ...   -4.4960e-08  Tolerance :   1.0000e-06
  Last MAX-Density change    ...    9.0466e-16  Tolerance :   1.0000e-05
  Last RMS-Density change    ...    1.4237e-17  Tolerance :   1.0000e-06
  Last Orbital Gradient      ...    2.0845e-05  Tolerance :   5.0000e-05
  Last Orbital Rotation      ...    1.7408e-05  Tolerance :   5.0000e-05

             **** THE GBW FILE WAS UPDATED (nmr.gbw) ****
             **** DENSITY nmr.scfp WAS UPDATED ****
             **** ENERGY FILE WAS UPDATED (nmr.en.tmp) ****
             **** THE GBW FILE WAS UPDATED (nmr.gbw) ****
             **** DENSITY nmr.scfp WAS UPDATED ****
----------------
ORBITAL ENERGIES
----------------

  NO   OCC          E(Eh)            E(eV) 
   0   2.0000     -10.173706      -276.8406 
   1   2.0000     -10.173472      -276.8343 
   2   2.0000     -10.173468      -276.8341 
   3   2.0000     -10.172885      -276.8183 
   4   2.0000     -10.172881      -276.8182 
   5   2.0000     -10.172614      -276.8109 
   6   2.0000      -0.855255       -23.2727 
   7   2.0000      -0.746381       -20.3101 
   8   2.0000      -0.746337       -20.3089 
   9   2.0000      -0.603153       -16.4126 
  10   2.0000      -0.603145       -16.4124 
  11   2.0000      -0.525453       -14.2983 
  12   2.0000      -0.461025       -12.5451 
  13   2.0000      -0.448446       -12.2028 
  14   2.0000      -0.422754       -11.5037 
  15   2.0000      -0.422679       -11.5017 
  16   2.0000      -0.370202       -10.0737 
  17   2.0000      -0.345386        -9.3984 
  18   2.0000      -0.345333        -9.3970 
  19   2.0000      -0.256346        -6.9755 
  20   2.0000      -0.256314        -6.9747 
  21   0.0000      -0.011543        -0.3141 
  22   0.0000      -0.011533        -0.3138 
  23   0.0000       0.048103         1.3089 
  24   0.0000       0.080916         2.2018 
  25   0.0000       0.080926         2.2021 
  26   0.0000       0.107736         2.9317 
  27   0.0000       0.107755         2.9322 
  28   0.0000       0.129235         3.5167 
  29   0.0000       0.142793         3.8856 
  30   0.0000       0.149986         4.0813 
  31   0.0000       0.207802         5.6546 
  32   0.0000       0.211887         5.7657 
  33   0.0000       0.218326         5.9410 
  34   0.0000       0.218338         5.9413 
  35   0.0000       0.230939         6.2842 
  36   0.0000       0.230968         6.2849 
  37   0.0000       0.248117         6.7516 
  38   0.0000       0.248152         6.7526 
  39   0.0000       0.271796         7.3959 
  40   0.0000       0.271814         7.3964 
  41   0.0000       0.328238         8.9318 
  42   0.0000       0.328262         8.9325 
  43   0.0000       0.329035         8.9535 
  44   0.0000       0.358673         9.7600 
  45   0.0000       0.358711         9.7610 
  46   0.0000       0.384383        10.4596 
  47   0.0000       0.405374        11.0308 
  48   0.0000       0.419851        11.4247 
  49   0.0000       0.419866        11.4251 
  50   0.0000       0.438714        11.9380 
  51   0.0000       0.438744        11.9388 
  52   0.0000       0.439598        11.9621 
  53   0.0000       0.448123        12.1940 
  54   0.0000       0.463829        12.6214 
  55   0.0000       0.491824        13.3832 
  56   0.0000       0.493294        13.4232 
  57   0.0000       0.493312        13.4237 
  58   0.0000       0.506299        13.7771 
  59   0.0000       0.506357        13.7787 
  60   0.0000       0.637487        17.3469 
  61   0.0000       0.637565        17.3490 
  62   0.0000       0.653218        17.7750 
  63   0.0000       0.670804        18.2535 
  64   0.0000       0.672359        18.2958 
  65   0.0000       0.672433        18.2978 
  66   0.0000       0.687695        18.7131 
  67   0.0000       0.753534        20.5047 
  68   0.0000       0.753603        20.5066 
  69   0.0000       0.762089        20.7375 
  70   0.0000       0.762132        20.7387 
  71   0.0000       0.797333        21.6965 
  72   0.0000       0.810258        22.0482 
  73   0.0000       0.876384        23.8476 
  74   0.0000       0.895573        24.3698 
  75   0.0000       0.930240        25.3131 
  76   0.0000       0.948619        25.8132 
  77   0.0000       0.948635        25.8137 
  78   0.0000       0.984724        26.7957 
  79   0.0000       0.984795        26.7976 
  80   0.0000       0.987633        26.8749 
  81   0.0000       0.997672        27.1480 
  82   0.0000       0.997711        27.1491 
  83   0.0000       1.085347        29.5338 
  84   0.0000       1.085397        29.5351 
  85   0.0000       1.089360        29.6430 
  86   0.0000       1.089431        29.6449 
  87   0.0000       1.179069        32.0841 
  88   0.0000       1.180634        32.1267 
  89   0.0000       1.180680        32.1279 
  90   0.0000       1.191272        32.4162 
  91   0.0000       1.191307        32.4171 
  92   0.0000       1.205631        32.8069 
  93   0.0000       1.255073        34.1523 
  94   0.0000       1.280783        34.8519 
  95   0.0000       1.280823        34.8530 
  96   0.0000       1.286929        35.0191 
  97   0.0000       1.287030        35.0219 
  98   0.0000       1.344101        36.5748 
  99   0.0000       1.344179        36.5770 
 100   0.0000       1.364357        37.1260 
 101   0.0000       1.364417        37.1277 
 102   0.0000       1.365213        37.1493 
 103   0.0000       1.411716        38.4147 
 104   0.0000       1.463897        39.8347 
 105   0.0000       1.472806        40.0771 
 106   0.0000       1.472822        40.0775 
 107   0.0000       1.484035        40.3827 
 108   0.0000       1.506106        40.9832 
 109   0.0000       1.506137        40.9841 
 110   0.0000       1.578841        42.9625 
 111   0.0000       1.578915        42.9645 
 112   0.0000       1.584729        43.1227 
 113   0.0000       1.593581        43.3636 
 114   0.0000       1.659564        45.1590 
 115   0.0000       1.659583        45.1596 
 116   0.0000       1.774009        48.2732 
 117   0.0000       1.774296        48.2811 
 118   0.0000       1.787148        48.6308 
 119   0.0000       1.787222        48.6328 
 120   0.0000       1.891484        51.4699 
 121   0.0000       1.897459        51.6325 
 122   0.0000       1.912420        52.0396 
 123   0.0000       1.912526        52.0425 
 124   0.0000       1.928065        52.4653 
 125   0.0000       1.960193        53.3396 
 126   0.0000       2.023455        55.0610 
 127   0.0000       2.023583        55.0645 
 128   0.0000       2.090996        56.8989 
 129   0.0000       2.270466        61.7825 
 130   0.0000       2.273630        61.8686 
 131   0.0000       2.273796        61.8731 
 132   0.0000       2.292554        62.3836 
 133   0.0000       2.361710        64.2654 
 134   0.0000       2.361774        64.2671 
 135   0.0000       2.369596        64.4800 
 136   0.0000       2.369691        64.4826 
 137   0.0000       2.476053        67.3768 
 138   0.0000       2.531025        68.8727 
 139   0.0000       2.602108        70.8070 
 140   0.0000       2.628591        71.5276 
 141   0.0000       2.628659        71.5295 
 142   0.0000       2.686235        73.0962 
 143   0.0000       2.694419        73.3189 
 144   0.0000       2.694447        73.3196 
 145   0.0000       2.748921        74.8019 
 146   0.0000       2.765572        75.2550 
 147   0.0000       2.765616        75.2562 
 148   0.0000       2.805338        76.3371 
 149   0.0000       2.805403        76.3389 
 150   0.0000       2.814841        76.5957 
 151   0.0000       2.814965        76.5991 
 152   0.0000       2.902535        78.9820 
 153   0.0000       2.910044        79.1863 
 154   0.0000       2.910104        79.1880 
 155   0.0000       3.000793        81.6557 
 156   0.0000       3.024256        82.2942 
 157   0.0000       3.029660        82.4412 
 158   0.0000       3.029683        82.4419 
 159   0.0000       3.038486        82.6814 
 160   0.0000       3.046516        82.8999 
 161   0.0000       3.046644        82.9034 
 162   0.0000       3.058263        83.2196 
 163   0.0000       3.058408        83.2235 
 164   0.0000       3.115539        84.7781 
 165   0.0000       3.115559        84.7787 
 166   0.0000       3.120741        84.9197 
 167   0.0000       3.120846        84.9225 
 168   0.0000       3.139182        85.4215 
 169   0.0000       3.177792        86.4721 
 170   0.0000       3.177845        86.4736 
 171   0.0000       3.229137        87.8693 
 172   0.0000       3.296812        89.7108 
 173   0.0000       3.296919        89.7137 
 174   0.0000       3.311131        90.1005 
 175   0.0000       3.311227        90.1031 
 176   0.0000       3.317767        90.2810 
 177   0.0000       3.317844        90.2831 
 178   0.0000       3.326886        90.5292 
 179   0.0000       3.396417        92.4212 
 180   0.0000       3.396474        92.4228 
 181   0.0000       3.409288        92.7714 
 182   0.0000       3.409346        92.7730 
 183   0.0000       3.431268        93.3696 
 184   0.0000       3.500825        95.2623 
 185   0.0000       3.500880        95.2638 
 186   0.0000       3.531531        96.0978 
 187   0.0000       3.531555        96.0985 
 188   0.0000       3.543071        96.4119 
 189   0.0000       3.581983        97.4707 
 190   0.0000       3.605114        98.1001 
 191   0.0000       3.682816       100.2145 
 192   0.0000       3.746139       101.9376 
 193   0.0000       3.748739       102.0084 
 194   0.0000       3.757186       102.2382 
 195   0.0000       3.757244       102.2398 
 196   0.0000       3.774305       102.7041 
 197   0.0000       3.776247       102.7569 
 198   0.0000       3.776307       102.7585 
 199   0.0000       3.797210       103.3273 
 200   0.0000       3.801196       103.4358 
 201   0.0000       3.818222       103.8991 
 202   0.0000       3.818282       103.9007 
 203   0.0000       3.871368       105.3453 
 204   0.0000       3.871407       105.3463 
 205   0.0000       3.888989       105.8248 
 206   0.0000       3.889046       105.8263 
 207   0.0000       3.975498       108.1788 
 208   0.0000       3.975569       108.1807 
 209   0.0000       4.050421       110.2175 
 210   0.0000       4.089680       111.2858 
 211   0.0000       4.089825       111.2898 
 212   0.0000       4.128166       112.3331 
 213   0.0000       4.137759       112.5942 
 214   0.0000       4.137830       112.5961 
 215   0.0000       4.190591       114.0318 
 216   0.0000       4.227281       115.0302 
 217   0.0000       4.227403       115.0335 
 218   0.0000       4.228482       115.0628 
 219   0.0000       4.270880       116.2166 
 220   0.0000       4.271001       116.2198 
 221   0.0000       4.305109       117.1480 
 222   0.0000       4.305193       117.1503 
 223   0.0000       4.307609       117.2160 
 224   0.0000       4.307695       117.2184 
 225   0.0000       4.308660       117.2446 
 226   0.0000       4.479763       121.9005 
 227   0.0000       4.479897       121.9042 
 228   0.0000       4.554500       123.9343 
 229   0.0000       4.597291       125.0986 
 230   0.0000       4.644494       126.3831 
 231   0.0000       4.644607       126.3862 
 232   0.0000       4.652607       126.6039 
 233   0.0000       4.653061       126.6162 
 234   0.0000       4.677217       127.2735 
 235   0.0000       4.760292       129.5341 
 236   0.0000       4.760432       129.5379 
 237   0.0000       4.762950       129.6065 
 238   0.0000       4.775814       129.9565 
 239   0.0000       4.776229       129.9678 
 240   0.0000       4.816269       131.0573 
 241   0.0000       4.877375       132.7201 
 242   0.0000       4.991480       135.8251 
 243   0.0000       4.991538       135.8267 
 244   0.0000       5.058951       137.6610 
 245   0.0000       5.124310       139.4396 
 246   0.0000       5.124326       139.4400 
 247   0.0000       5.196497       141.4039 
 248   0.0000       5.200232       141.5055 
 249   0.0000       5.200306       141.5075 
 250   0.0000       5.336107       145.2029 
 251   0.0000       5.336205       145.2055 
 252   0.0000       5.448861       148.2710 
 253   0.0000       5.449900       148.2993 
 254   0.0000       5.534947       150.6136 
 255   0.0000       5.535047       150.6163 
 256   0.0000       5.589655       152.1023 
 257   0.0000       5.775860       157.1692 
 258   0.0000       5.775920       157.1708 
 259   0.0000       5.817219       158.2946 
 260   0.0000       6.167360       167.8224 
 261   0.0000       6.167526       167.8269 
 262   0.0000       6.209152       168.9596 
 263   0.0000       6.802843       185.1148 
 264   0.0000      22.404855       609.6671 
 265   0.0000      23.149360       629.9261 
 266   0.0000      23.149580       629.9321 
 267   0.0000      23.245776       632.5497 
 268   0.0000      23.245918       632.5536 
 269   0.0000      24.109217       656.0452 

                    ********************************
                    * MULLIKEN POPULATION ANALYSIS *
                    ********************************

-----------------------
MULLIKEN ATOMIC CHARGES
-----------------------
   0 C :   -0.132490
   1 C :   -0.132696
   2 C :   -0.132528
   3 C :   -0.132413
   4 C :   -0.132734
   5 C :   -0.132470
   6 H :    0.132761
   7 H :    0.132748
   8 H :    0.132222
   9 H :    0.132709
  10 H :    0.132675
  11 H :    0.132216
Sum of atomic charges:    0.0000000

--------------------------------
MULLIKEN REDUCED ORBITAL CHARGES
--------------------------------
  0 C s       :     3.194406  s :     3.194406
      pz      :     0.954511  p :     2.830439
      px      :     0.995550
      py      :     0.880379
      dz2     :     0.004586  d :     0.100188
      dxz     :     0.006241
      dyz     :     0.023070
      dx2y2   :     0.043887
      dxy     :     0.022404
      f0      :     0.001340  f :     0.007458
      f+1     :     0.000626
      f-1     :     0.000411
      f+2     :     0.000390
      f-2     :     0.001107
      f+3     :     0.001411
      f-3     :     0.002172
  1 C s       :     3.194459  s :     3.194459
      pz      :     0.954602  p :     2.830613
      px      :     0.893184
      py      :     0.982828
      dz2     :     0.004584  d :     0.100164
      dxz     :     0.021211
      dyz     :     0.008102
      dx2y2   :     0.034444
      dxy     :     0.031824
      f0      :     0.001341  f :     0.007460
      f+1     :     0.000435
      f-1     :     0.000603
      f+2     :     0.000706
      f-2     :     0.000792
      f+3     :     0.001412
      f-3     :     0.002172
  2 C s       :     3.195204  s :     3.195204
      pz      :     0.954530  p :     2.829769
      px      :     0.924958
      py      :     0.950282
      dz2     :     0.004563  d :     0.100099
      dxz     :     0.016515
      dyz     :     0.012792
      dx2y2   :     0.021097
      dxy     :     0.045132
      f0      :     0.001340  f :     0.007455
      f+1     :     0.000494
      f-1     :     0.000542
      f+2     :     0.001150
      f-2     :     0.000348
      f+3     :     0.001410
      f-3     :     0.002172
  3 C s       :     3.194397  s :     3.194397
      pz      :     0.954510  p :     2.830388
      px      :     0.995475
      py      :     0.880403
      dz2     :     0.004583  d :     0.100170
      dxz     :     0.006241
      dyz     :     0.023070
      dx2y2   :     0.043877
      dxy     :     0.022401
      f0      :     0.001340  f :     0.007457
      f+1     :     0.000627
      f-1     :     0.000411
      f+2     :     0.000390
      f-2     :     0.001107
      f+3     :     0.001410
      f-3     :     0.002172
  4 C s       :     3.194557  s :     3.194557
      pz      :     0.954601  p :     2.830562
      px      :     0.893215
      py      :     0.982746
      dz2     :     0.004584  d :     0.100155
      dxz     :     0.021211
      dyz     :     0.008102
      dx2y2   :     0.034436
      dxy     :     0.031822
      f0      :     0.001341  f :     0.007460
      f+1     :     0.000435
      f-1     :     0.000603
      f+2     :     0.000706
      f-2     :     0.000792
      f+3     :     0.001412
      f-3     :     0.002172
  5 C s       :     3.195166  s :     3.195166
      pz      :     0.954529  p :     2.829752
      px      :     0.924889
      py      :     0.950334
      dz2     :     0.004566  d :     0.100097
      dxz     :     0.016515
      dyz     :     0.012792
      dx2y2   :     0.021097
      dxy     :     0.045126
      f0      :     0.001340  f :     0.007455
      f+1     :     0.000494
      f-1     :     0.000542
      f+2     :     0.001150
      f-2     :     0.000348
      f+3     :     0.001410
      f-3     :     0.002171
  6 H s       :     0.832810  s :     0.832810
      pz      :     0.012605  p :     0.032815
      px      :     0.011430
      py      :     0.008780
      dz2     :     0.000007  d :     0.001614
      dxz     :     0.000670
      dyz     :     0.000030
      dx2y2   :     0.000096
      dxy     :     0.000811
  7 H s       :     0.832821  s :     0.832821
      pz      :     0.012604  p :     0.032817
      px      :     0.009063
      py      :     0.011150
      dz2     :     0.000007  d :     0.001614
      dxz     :     0.000101
      dyz     :     0.000599
      dx2y2   :     0.000410
      dxy     :     0.000496
  8 H s       :     0.833301  s :     0.833301
      pz      :     0.012601  p :     0.032862
      px      :     0.009817
      py      :     0.010444
      dz2     :     0.000007  d :     0.001615
      dxz     :     0.000279
      dyz     :     0.000421
      dx2y2   :     0.000855
      dxy     :     0.000053
  9 H s       :     0.832865  s :     0.832865
      pz      :     0.012605  p :     0.032812
      px      :     0.011429
      py      :     0.008778
      dz2     :     0.000007  d :     0.001614
      dxz     :     0.000670
      dyz     :     0.000030
      dx2y2   :     0.000096
      dxy     :     0.000811
 10 H s       :     0.832891  s :     0.832891
      pz      :     0.012604  p :     0.032820
      px      :     0.009062
      py      :     0.011154
      dz2     :     0.000007  d :     0.001614
      dxz     :     0.000101
      dyz     :     0.000599
      dx2y2   :     0.000410
      dxy     :     0.000496
 11 H s       :     0.833303  s :     0.833303
      pz      :     0.012601  p :     0.032866
      px      :     0.009821
      py      :     0.010444
      dz2     :     0.000007  d :     0.001615
      dxz     :     0.000279
      dyz     :     0.000421
      dx2y2   :     0.000855
      dxy     :     0.000053


                     *******************************
                     * LOEWDIN POPULATION ANALYSIS *
                     *******************************

----------------------
LOEWDIN ATOMIC CHARGES
----------------------
   0 C :   -0.015432
   1 C :   -0.015454
   2 C :   -0.015418
   3 C :   -0.015432
   4 C :   -0.015454
   5 C :   -0.015417
   6 H :    0.015442
   7 H :    0.015441
   8 H :    0.015421
   9 H :    0.015441
  10 H :    0.015441
  11 H :    0.015421

-------------------------------
LOEWDIN REDUCED ORBITAL CHARGES
-------------------------------
  0 C s       :     2.722197  s :     2.722197
      pz      :     0.847995  p :     2.859163
      px      :     0.987672
      py      :     1.023496
      dz2     :     0.025573  d :     0.391023
      dxz     :     0.016424
      dyz     :     0.073821
      dx2y2   :     0.160448
      dxy     :     0.114757
      f0      :     0.002310  f :     0.043050
      f+1     :     0.003196
      f-1     :     0.003841
      f+2     :     0.002493
      f-2     :     0.006908
      f+3     :     0.009952
      f-3     :     0.014348
  1 C s       :     2.722199  s :     2.722199
      pz      :     0.848029  p :     2.859190
      px      :     1.019531
      py      :     0.991630
      dz2     :     0.025571  d :     0.391020
      dxz     :     0.067476
      dyz     :     0.022774
      dx2y2   :     0.140382
      dxy     :     0.134817
      f0      :     0.002311  f :     0.043046
      f+1     :     0.003770
      f-1     :     0.003267
      f+2     :     0.004432
      f-2     :     0.004968
      f+3     :     0.009953
      f-3     :     0.014345
  2 C s       :     2.722199  s :     2.722199
      pz      :     0.848008  p :     2.859143
      px      :     1.009530
      py      :     1.001605
      dz2     :     0.025562  d :     0.391030
      dxz     :     0.051487
      dyz     :     0.038773
      dx2y2   :     0.112004
      dxy     :     0.163205
      f0      :     0.002311  f :     0.043046
      f+1     :     0.003590
      f-1     :     0.003446
      f+2     :     0.007173
      f-2     :     0.002226
      f+3     :     0.009952
      f-3     :     0.014347
  3 C s       :     2.722197  s :     2.722197
      pz      :     0.847994  p :     2.859163
      px      :     0.987672
      py      :     1.023496
      dz2     :     0.025573  d :     0.391023
      dxz     :     0.016424
      dyz     :     0.073821
      dx2y2   :     0.160447
      dxy     :     0.114758
      f0      :     0.002310  f :     0.043050
      f+1     :     0.003196
      f-1     :     0.003841
      f+2     :     0.002493
      f-2     :     0.006908
      f+3     :     0.009952
      f-3     :     0.014348
  4 C s       :     2.722199  s :     2.722199
      pz      :     0.848029  p :     2.859190
      px      :     1.019531
      py      :     0.991630
      dz2     :     0.025571  d :     0.391020
      dxz     :     0.067476
      dyz     :     0.022774
      dx2y2   :     0.140381
      dxy     :     0.134818
      f0      :     0.002311  f :     0.043046
      f+1     :     0.003770
      f-1     :     0.003267
      f+2     :     0.004432
      f-2     :     0.004968
      f+3     :     0.009953
      f-3     :     0.014345
  5 C s       :     2.722198  s :     2.722198
      pz      :     0.848007  p :     2.859143
      px      :     1.009531
      py      :     1.001605
      dz2     :     0.025562  d :     0.391030
      dxz     :     0.051487
      dyz     :     0.038773
      dx2y2   :     0.112004
      dxy     :     0.163205
      f0      :     0.002311  f :     0.043046
      f+1     :     0.003590
      f-1     :     0.003446
      f+2     :     0.007173
      f-2     :     0.002226
      f+3     :     0.009952
      f-3     :     0.014347
  6 H s       :     0.807407  s :     0.807407
      pz      :     0.041750  p :     0.148268
      px      :     0.071137
      py      :     0.035381
      dz2     :     0.002666  d :     0.028883
      dxz     :     0.008067
      dyz     :     0.000240
      dx2y2   :     0.008679
      dxy     :     0.009231
  7 H s       :     0.807397  s :     0.807397
      pz      :     0.041756  p :     0.148278
      px      :     0.039341
      py      :     0.067181
      dz2     :     0.002666  d :     0.028884
      dxz     :     0.001107
      dyz     :     0.007200
      dx2y2   :     0.008922
      dxy     :     0.008989
  8 H s       :     0.807415  s :     0.807415
      pz      :     0.041758  p :     0.148279
      px      :     0.049295
      py      :     0.057225
      dz2     :     0.002667  d :     0.028885
      dxz     :     0.003286
      dyz     :     0.005022
      dx2y2   :     0.009265
      dxy     :     0.008645
  9 H s       :     0.807407  s :     0.807407
      pz      :     0.041750  p :     0.148268
      px      :     0.071137
      py      :     0.035381
      dz2     :     0.002666  d :     0.028883
      dxz     :     0.008067
      dyz     :     0.000240
      dx2y2   :     0.008679
      dxy     :     0.009231
 10 H s       :     0.807397  s :     0.807397
      pz      :     0.041756  p :     0.148277
      px      :     0.039341
      py      :     0.067181
      dz2     :     0.002666  d :     0.028884
      dxz     :     0.001107
      dyz     :     0.007200
      dx2y2   :     0.008922
      dxy     :     0.008989
 11 H s       :     0.807415  s :     0.807415
      pz      :     0.041758  p :     0.148279
      px      :     0.049295
      py      :     0.057225
      dz2     :     0.002667  d :     0.028885
      dxz     :     0.003286
      dyz     :     0.005022
      dx2y2   :     0.009265
      dxy     :     0.008645


                      *****************************
                      * MAYER POPULATION ANALYSIS *
                      *****************************

  NA   - Mulliken gross atomic population
  ZA   - Total nuclear charge
  QA   - Mulliken gross atomic charge
  VA   - Mayer's total valence
  BVA  - Mayer's bonded valence
  FA   - Mayer's free valence

  ATOM       NA         ZA         QA         VA         BVA        FA
  0 C      6.1325     6.0000    -0.1325     3.9485     3.9485     0.0000
  1 C      6.1327     6.0000    -0.1327     3.9491     3.9491     0.0000
  2 C      6.1325     6.0000    -0.1325     3.9483     3.9483     0.0000
  3 C      6.1324     6.0000    -0.1324     3.9484     3.9484     0.0000
  4 C      6.1327     6.0000    -0.1327     3.9489     3.9489     0.0000
  5 C      6.1325     6.0000    -0.1325     3.9481     3.9481     0.0000
  6 H      0.8672     1.0000     0.1328     0.9956     0.9956     0.0000
  7 H      0.8673     1.0000     0.1327     0.9955     0.9955     0.0000
  8 H      0.8678     1.0000     0.1322     0.9957     0.9957     0.0000
  9 H      0.8673     1.0000     0.1327     0.9956     0.9956    -0.0000
 10 H      0.8673     1.0000     0.1327     0.9956     0.9956     0.0000
 11 H      0.8678     1.0000     0.1322     0.9958     0.9958    -0.0000

  Mayer bond orders larger than 0.100000
B(  0-C ,  1-C ) :   1.4328 B(  0-C ,  5-C ) :   1.4317 B(  0-C ,  6-H ) :   0.9582 
B(  1-C ,  2-C ) :   1.4321 B(  1-C ,  7-H ) :   0.9583 B(  2-C ,  3-C ) :   1.4318 
B(  2-C ,  8-H ) :   0.9587 B(  3-C ,  4-C ) :   1.4326 B(  3-C ,  9-H ) :   0.9583 
B(  4-C ,  5-C ) :   1.4320 B(  4-C , 10-H ) :   0.9584 B(  5-C , 11-H ) :   0.9588 


-------
TIMINGS
-------

Total SCF time: 0 days 0 hours 0 min 9 sec 

Total time                  ....       9.004 sec
Sum of individual times     ....       8.843 sec  ( 98.2%)

Fock matrix formation       ....       8.087 sec  ( 89.8%)
  Split-RI-J                ....       0.651 sec  (  8.1% of F)
  Chain of spheres X        ....       6.331 sec  ( 78.3% of F)
  XC integration            ....       1.052 sec  ( 13.0% of F)
    Basis function eval.    ....       0.232 sec  ( 22.1% of XC)
    Density eval.           ....       0.276 sec  ( 26.2% of XC)
    XC-Functional eval.     ....       0.024 sec  (  2.3% of XC)
    XC-Potential eval.      ....       0.440 sec  ( 41.9% of XC)
Diagonalization             ....       0.088 sec  (  1.0%)
Density matrix formation    ....       0.011 sec  (  0.1%)
Population analysis         ....       0.014 sec  (  0.2%)
Initial guess               ....       0.073 sec  (  0.8%)
Orbital Transformation      ....       0.000 sec  (  0.0%)
Orbital Orthonormalization  ....       0.000 sec  (  0.0%)
DIIS solution               ....       0.054 sec  (  0.6%)
SOSCF solution              ....       0.036 sec  (  0.4%)
Grid generation             ....       0.480 sec  (  5.3%)

Maximum memory used throughout the entire SCF-calculation: 72.5 MB

-------------------------   --------------------
FINAL SINGLE POINT ENERGY      -232.186014419848
-------------------------   --------------------


                            ***************************************
                            *     ORCA property calculations      *
                            ***************************************

                                    ---------------------
                                    Active property flags
                                    ---------------------
   (+) Dipole Moment
   (+) Chemical Shifts
   (+) Nuclear properties (Hyperfine,Quadrupole)


------------------------------------------------------------------------------
                       ORCA ELECTRIC PROPERTIES CALCULATION
------------------------------------------------------------------------------

Dipole Moment Calculation                       ... on
Quadrupole Moment Calculation                   ... off
Polarizability Calculation                      ... off
GBWName                                         ... nmr.gbw
Electron density                                ... nmr.scfp
The origin for moment calculation is the CENTER OF MASS  = ( 0.009681, -0.009926  0.000897)

-------------
DIPOLE MOMENT
-------------
                                X             Y             Z
Electronic contribution:      0.00000      -0.00000      -0.00000
Nuclear contribution   :     -0.00000       0.00000       0.00000
                        -----------------------------------------
Total Dipole Moment    :     -0.00000       0.00000      -0.00000
                        -----------------------------------------
Magnitude (a.u.)       :      0.00000
Magnitude (Debye)      :      0.00000



--------------------
Rotational spectrum 
--------------------
 
Rotational constants in cm-1:     0.191168     0.191108     0.095569 
Rotational constants in MHz :  5731.085441  5729.288104  2865.093316 

 Dipole components along the rotational axes: 
x,y,z [a.u.] :    -0.000001     0.000001    -0.000001 
x,y,z [Debye]:    -0.000002     0.000002    -0.000001 

 


           ************************************************************
           *        Program running with 8 parallel MPI-processes     *
           *              working on a common directory               *
           ************************************************************
------------------------------------------------------------------------------
                                ORCA EPR/NMR CALCULATION
------------------------------------------------------------------------------

GBWName                      ... nmr.gbw
Electron density             ... nmr.scfp
Spin density                 ... nmr.scfr
Treatment of gauge           ... GIAO (approximations 1/2el = 0,0)
Details of the CP(SCF) procedure:
       Solver   = POPLE   
       MaxIter  =    64   
       Tolerance=    1.000e-03
       COSX Grid=     1   
       Op-0     =   0- 20 =>  21-269
Multiplicity                 ... 1
g-tensor                     ... 0
NMR chemical shifts          ... 1
NMR spin-spin couplings      ... 0
NMR spectrum                 ... 0
Number of nuclei for epr/nmr ... 12
   Nucleus:   6H 
       Hyperfine : Isotope=    0 I=   0.000 P=   0.000
       Quadrupole: Isotope=    0 I=   0.000 Q=   0.000
       Spin-Orbit: Zeff=   1.000
       Nuclear Spin-Spin: Gn=   0.000
       EPRNMR Input: 
       rho(0)=N f(grad)=N a(iso)=N a(dip)=N a(orb)=N sigma(nmr)=Y spin-spin(nmr)=all-N,DSO-N,PSO-N,FC-N,SD-N
   Nucleus:   7H 
       Hyperfine : Isotope=    0 I=   0.000 P=   0.000
       Quadrupole: Isotope=    0 I=   0.000 Q=   0.000
       Spin-Orbit: Zeff=   1.000
       Nuclear Spin-Spin: Gn=   0.000
       EPRNMR Input: 
       rho(0)=N f(grad)=N a(iso)=N a(dip)=N a(orb)=N sigma(nmr)=Y spin-spin(nmr)=all-N,DSO-N,PSO-N,FC-N,SD-N
   Nucleus:   8H 
       Hyperfine : Isotope=    0 I=   0.000 P=   0.000
       Quadrupole: Isotope=    0 I=   0.000 Q=   0.000
       Spin-Orbit: Zeff=   1.000
       Nuclear Spin-Spin: Gn=   0.000
       EPRNMR Input: 
       rho(0)=N f(grad)=N a(iso)=N a(dip)=N a(orb)=N sigma(nmr)=Y spin-spin(nmr)=all-N,DSO-N,PSO-N,FC-N,SD-N
   Nucleus:   9H 
       Hyperfine : Isotope=    0 I=   0.000 P=   0.000
       Quadrupole: Isotope=    0 I=   0.000 Q=   0.000
       Spin-Orbit: Zeff=   1.000
       Nuclear Spin-Spin: Gn=   0.000
       EPRNMR Input: 
       rho(0)=N f(grad)=N a(iso)=N a(dip)=N a(orb)=N sigma(nmr)=Y spin-spin(nmr)=all-N,DSO-N,PSO-N,FC-N,SD-N
   Nucleus:  10H 
       Hyperfine : Isotope=    0 I=   0.000 P=   0.000
       Quadrupole: Isotope=    0 I=   0.000 Q=   0.000
       Spin-Orbit: Zeff=   1.000
       Nuclear Spin-Spin: Gn=   0.000
       EPRNMR Input: 
       rho(0)=N f(grad)=N a(iso)=N a(dip)=N a(orb)=N sigma(nmr)=Y spin-spin(nmr)=all-N,DSO-N,PSO-N,FC-N,SD-N
   Nucleus:  11H 
       Hyperfine : Isotope=    0 I=   0.000 P=   0.000
       Quadrupole: Isotope=    0 I=   0.000 Q=   0.000
       Spin-Orbit: Zeff=   1.000
       Nuclear Spin-Spin: Gn=   0.000
       EPRNMR Input: 
       rho(0)=N f(grad)=N a(iso)=N a(dip)=N a(orb)=N sigma(nmr)=Y spin-spin(nmr)=all-N,DSO-N,PSO-N,FC-N,SD-N
   Nucleus:   0C 
       Hyperfine : Isotope=    0 I=   0.000 P=   0.000
       Quadrupole: Isotope=    0 I=   0.000 Q=   0.000
       Spin-Orbit: Zeff=   3.600
       Nuclear Spin-Spin: Gn=   0.000
       EPRNMR Input: 
       rho(0)=N f(grad)=N a(iso)=N a(dip)=N a(orb)=N sigma(nmr)=Y spin-spin(nmr)=all-N,DSO-N,PSO-N,FC-N,SD-N
   Nucleus:   1C 
       Hyperfine : Isotope=    0 I=   0.000 P=   0.000
       Quadrupole: Isotope=    0 I=   0.000 Q=   0.000
       Spin-Orbit: Zeff=   3.600
       Nuclear Spin-Spin: Gn=   0.000
       EPRNMR Input: 
       rho(0)=N f(grad)=N a(iso)=N a(dip)=N a(orb)=N sigma(nmr)=Y spin-spin(nmr)=all-N,DSO-N,PSO-N,FC-N,SD-N
   Nucleus:   2C 
       Hyperfine : Isotope=    0 I=   0.000 P=   0.000
       Quadrupole: Isotope=    0 I=   0.000 Q=   0.000
       Spin-Orbit: Zeff=   3.600
       Nuclear Spin-Spin: Gn=   0.000
       EPRNMR Input: 
       rho(0)=N f(grad)=N a(iso)=N a(dip)=N a(orb)=N sigma(nmr)=Y spin-spin(nmr)=all-N,DSO-N,PSO-N,FC-N,SD-N
   Nucleus:   3C 
       Hyperfine : Isotope=    0 I=   0.000 P=   0.000
       Quadrupole: Isotope=    0 I=   0.000 Q=   0.000
       Spin-Orbit: Zeff=   3.600
       Nuclear Spin-Spin: Gn=   0.000
       EPRNMR Input: 
       rho(0)=N f(grad)=N a(iso)=N a(dip)=N a(orb)=N sigma(nmr)=Y spin-spin(nmr)=all-N,DSO-N,PSO-N,FC-N,SD-N
   Nucleus:   4C 
       Hyperfine : Isotope=    0 I=   0.000 P=   0.000
       Quadrupole: Isotope=    0 I=   0.000 Q=   0.000
       Spin-Orbit: Zeff=   3.600
       Nuclear Spin-Spin: Gn=   0.000
       EPRNMR Input: 
       rho(0)=N f(grad)=N a(iso)=N a(dip)=N a(orb)=N sigma(nmr)=Y spin-spin(nmr)=all-N,DSO-N,PSO-N,FC-N,SD-N
   Nucleus:   5C 
       Hyperfine : Isotope=    0 I=   0.000 P=   0.000
       Quadrupole: Isotope=    0 I=   0.000 Q=   0.000
       Spin-Orbit: Zeff=   3.600
       Nuclear Spin-Spin: Gn=   0.000
       EPRNMR Input: 
       rho(0)=N f(grad)=N a(iso)=N a(dip)=N a(orb)=N sigma(nmr)=Y spin-spin(nmr)=all-N,DSO-N,PSO-N,FC-N,SD-N
Forming RHS of the CP-SCF equations         ... 
Calculating right hand sides for GIAO treatment        ... 
  Entering RightHandSide GIAO. ScalHFX=    0.2000 NeedHFX=1
     -> 1-electron GIAO integrals will be done analytically
     -> RIJCOSX used in SCF. Same chosen for GIAO calculation.
     Making grid for GIAO integrations   ...

GRID GIAO
---------

General Integration Accuracy     IntAcc      ... 4.388
Radial Grid Type                 RadialGrid  ... OptM3 with GC (2021)
Angular Grid (max. ang.)         AngularGrid ... 4 (Lebedev-302)
Angular grid pruning method      GridPruning ... 4 (adaptive)
Weight generation scheme         WeightScheme... Becke
Basis function cutoff            BFCut       ... 1.0000e-10
Integration weight cutoff        WCut        ... 1.0000e-14
Angular grids for H and He will be reduced by one unit
Partially contracted basis set               ... off
Rotationally invariant grid construction     ... off

Total number of grid points                  ...    55542
Total number of batches                      ...      876
Average number of points per batch           ...       63
Average number of grid points per atom       ...     4628

  One-electron GIAO integrals (SHARK)     ... done
  Calculating G(B)[P]                     ... (RI-J: SHARK-ok) (COSX-ok) (add-J+K:ok) => dG/dB done
  DFT XC-terms                            ... done
  Extracting occupied and virtual blocks  ... 
  Operator  0  NO=  21 NV= 249 
  Transforming and RHS contribution       ... done
  Adding eps_i * S(B)_ai terms            ... done
  Projecting overlap derivatives          ... done
  Building G[dS/dB_ij] (COSX)             ... done
  Transforming to MO basis                ... done
  Summing G[dS/dB_ij] into RHS contribs.  ... done

  GIAO profiling information: 
    Total GIAO time               ...       3.8 sec
       GIAO 1-electron integrals  ...       0.0 sec (  0.7%)
       GIAO G(dS/dB) terms        ...       0.3 sec (  7.1%)
       GIAO RI-J                  ...       0.3 sec (  8.7%)
       GIAO COSX                  ...       0.9 sec ( 24.8%)
       GIAO XC-terms              ...       2.0 sec ( 51.9%)
       Right hand side assembly   ...       0.0 sec (  0.2%)

  GIAO right hand side done


------------------------------------------------------------------------------
                           ORCA CP-SCF CALCULATION
------------------------------------------------------------------------------

Input orbitals are from        ... nmr.gbw
Input Perturbation             ... nmr.pin.tmp
Wavefunction output            ... nmr.pout.tmp
Perturbation mode              ... Imaginary perturbation
Solver                         ... POPLE
Max. number of iterations      ... 64
Convergence tolerance          ... 1.000e-03
Integral handling              ... Direct
DFT GridXC                     ... 1
COSX GridX                     ... 1
COSX IntAccX                   ... 3.067
COSX Algorithm                 ... Auto
Number of perturbations        ... 3
Number of operators            ... 1
Orbital ranges used for CP-SCF:
 Operator 0:  Orbitals   0... 20  to  21...269
Variables per perturbation     ... 5229
DFT calculation                         ... on
XC functional terms                     ... off
Hybrid DFT                              ... on
   Exchange mixing (SCF)                ...  0.200
   Exchange mixing (CP-SCF)             ...  0.200
   GGA exch. scaling(SCF)               ...  0.720
   GGA exch. scaling (CP-SCF)           ...  0.720
   GGA corr. scaling (SCF)              ...  0.810
   GGA corr. scaling (CP-SCF)           ...  0.810

CP-SCF GRID
-----------

General Integration Accuracy     IntAcc      ... 3.467
Radial Grid Type                 RadialGrid  ... OptM3 with GC (2021)
Angular Grid (max. ang.)         AngularGrid ... 1 (Lebedev-50)
Angular grid pruning method      GridPruning ... 4 (adaptive)
Weight generation scheme         WeightScheme... Becke
Basis function cutoff            BFCut       ... 1.0000e-10
Integration weight cutoff        WCut        ... 1.0000e-14
Angular grids for H and He will be reduced by one unit
Partially contracted basis set               ... off
Rotationally invariant grid construction     ... off

Total number of grid points                  ...     8116
Total number of batches                      ...      132
Average number of points per batch           ...       61
Average number of grid points per atom       ...      676

CP-SCF GRIDX
------------

General Integration Accuracy     IntAcc      ... 3.067
Radial Grid Type                 RadialGrid  ... OptM3 with GC (2021)
Angular Grid (max. ang.)         AngularGrid ... 1 (Lebedev-50)
Angular grid pruning method      GridPruning ... 4 (adaptive)
Weight generation scheme         WeightScheme... Becke
Basis function cutoff            BFCut       ... 1.0000e-10
Integration weight cutoff        WCut        ... 1.0000e-14
Angular grids for H and He will be reduced by one unit
Partially contracted basis set               ... on
Rotationally invariant grid construction     ... off

Total number of grid points                  ...     3730
Total number of batches                      ...       66
Average number of points per batch           ...       56
Average number of grid points per atom       ...      311

Memory available               ... 31977.9 MB
Memory needed per perturbation ...   2.4 MB
Perturbations treated per batch... 3
Number of batches              ... 1
     CP-SCF ITERATION   0:   3.1853e-01 (   0.2 sec   0/  3 done)
     CP-SCF ITERATION   1:   1.9695e-03 (   0.3 sec   0/  3 done)
     CP-SCF ITERATION   2:   7.5716e-05 (   0.3 sec   3/  3 done)
                    *** THE CP-SCF HAS CONVERGED ***

Forming final perturbed densities           ... done
Transforming perturbed density to AO basis  ... done

Magnetic field perturbation calculated in  4.630 sec

---------------
CHEMICAL SHIFTS
---------------

Note: using conversion factor for au to ppm alpha^2/2 =   26.625677252 
GIAO: Analytic para- and diamagnetic shielding integrals (SHARK)       ...done
 --------------
 Nucleus   6H :
 --------------

Diamagnetic contribution to the shielding tensor (ppm) : 
            43.354         -2.660         0.089
            -2.659         26.810         0.038
             0.086          0.039        21.148

Paramagnetic contribution to the shielding tensor (ppm): 
           -19.850          3.299        -0.071
             3.299          0.672         0.023
            -0.069          0.022         0.011

Total shielding tensor (ppm): 
            23.505          0.639         0.017
             0.640         27.482         0.060
             0.017          0.060        21.159


 Diagonalized sT*s matrix:
 
 sDSO            21.147           43.771           26.394  iso=      30.437
 sPSO             0.011          -20.367            1.189  iso=      -6.389
        ---------------  ---------------  ---------------
 Total           21.158           23.404           27.583  iso=      24.049

 --------------
 Nucleus   7H :
 --------------

Diamagnetic contribution to the shielding tensor (ppm) : 
            28.644         -5.834        -0.014
            -5.833         41.526         0.153
            -0.015          0.155        21.145

Paramagnetic contribution to the shielding tensor (ppm): 
            -1.602          7.240         0.056
             7.237        -17.579        -0.120
             0.057         -0.122         0.010

Total shielding tensor (ppm): 
            27.042          1.406         0.042
             1.404         23.947         0.032
             0.042          0.033        21.156


 Diagonalized sT*s matrix:
 
 sDSO            21.144           43.776           26.396  iso=      30.438
 sPSO             0.011          -20.372            1.190  iso=      -6.390
        ---------------  ---------------  ---------------
 Total           21.155           23.404           27.585  iso=      24.048

 --------------
 Nucleus   8H :
 --------------

Diamagnetic contribution to the shielding tensor (ppm) : 
            33.258          8.489         0.135
             8.489         36.920         0.182
             0.136          0.183        21.195

Paramagnetic contribution to the shielding tensor (ppm): 
            -7.320        -10.532        -0.130
           -10.530        -11.864        -0.157
            -0.130         -0.158        -0.037

Total shielding tensor (ppm): 
            25.938         -2.043         0.005
            -2.041         25.055         0.025
             0.005          0.025        21.158


 Diagonalized sT*s matrix:
 
 sDSO            21.192           43.775           26.405  iso=      30.457
 sPSO            -0.035          -20.367            1.181  iso=      -6.407
        ---------------  ---------------  ---------------
 Total           21.158           23.408           27.586  iso=      24.050

 --------------
 Nucleus   9H :
 --------------

Diamagnetic contribution to the shielding tensor (ppm) : 
            43.354         -2.660         0.083
            -2.659         26.811         0.038
             0.089          0.037        21.211

Paramagnetic contribution to the shielding tensor (ppm): 
           -19.849          3.299        -0.066
             3.299          0.671         0.022
            -0.072          0.023        -0.052

Total shielding tensor (ppm): 
            23.505          0.639         0.017
             0.640         27.482         0.060
             0.017          0.060        21.159


 Diagonalized sT*s matrix:
 
 sDSO            21.210           43.771           26.395  iso=      30.459
 sPSO            -0.051          -20.367            1.188  iso=      -6.410
        ---------------  ---------------  ---------------
 Total           21.158           23.404           27.583  iso=      24.049

 --------------
 Nucleus  10H :
 --------------

Diamagnetic contribution to the shielding tensor (ppm) : 
            28.647         -5.834        -0.017
            -5.832         41.526         0.156
            -0.016          0.156        21.218

Paramagnetic contribution to the shielding tensor (ppm): 
            -1.604          7.240         0.058
             7.236        -17.579        -0.124
             0.058         -0.123        -0.062

Total shielding tensor (ppm): 
            27.042          1.406         0.042
             1.404         23.946         0.032
             0.042          0.033        21.156


 Diagonalized sT*s matrix:
 
 sDSO            21.217           43.776           26.398  iso=      30.463
 sPSO            -0.061          -20.372            1.187  iso=      -6.415
        ---------------  ---------------  ---------------
 Total           21.155           23.404           27.585  iso=      24.048

 --------------
 Nucleus  11H :
 --------------

Diamagnetic contribution to the shielding tensor (ppm) : 
            33.258          8.487         0.138
             8.490         36.920         0.186
             0.135          0.183        21.204

Paramagnetic contribution to the shielding tensor (ppm): 
            -7.320        -10.530        -0.133
           -10.531        -11.864        -0.161
            -0.130         -0.159        -0.046

Total shielding tensor (ppm): 
            25.938         -2.043         0.005
            -2.041         25.055         0.025
             0.005          0.025        21.158


 Diagonalized sT*s matrix:
 
 sDSO            21.202           43.775           26.405  iso=      30.461
 sPSO            -0.044          -20.367            1.181  iso=      -6.410
        ---------------  ---------------  ---------------
 Total           21.158           23.408           27.586  iso=      24.051

 --------------
 Nucleus   0C :
 --------------

Diamagnetic contribution to the shielding tensor (ppm) : 
           258.243          1.541         0.115
             1.558        267.937         0.278
             0.116          0.279       238.007

Paramagnetic contribution to the shielding tensor (ppm): 
          -319.807         14.327        -1.146
            14.309       -230.867        -1.442
            -1.147         -1.439       -63.331

Total shielding tensor (ppm): 
           -61.564         15.868        -1.030
            15.867         37.070        -1.164
            -1.031         -1.160       174.675


 Diagonalized sT*s matrix:
 
 sDSO           268.181          258.002          238.003  iso=     254.729
 sPSO          -228.634         -322.059          -63.313  iso=    -204.669
        ---------------  ---------------  ---------------
 Total           39.547          -64.057          174.691  iso=      50.060

 --------------
 Nucleus   1C :
 --------------

Diamagnetic contribution to the shielding tensor (ppm) : 
           266.855          3.417         0.175
             3.410        259.328         0.209
             0.177          0.211       237.958

Paramagnetic contribution to the shielding tensor (ppm): 
          -240.728         31.403        -0.601
            31.370       -309.964        -2.070
            -0.602         -2.066       -63.272

Total shielding tensor (ppm): 
            26.127         34.820        -0.426
            34.780        -50.636        -1.862
            -0.426         -1.855       174.685


 Diagonalized sT*s matrix:
 
 sDSO           268.174          258.012          237.955  iso=     254.713
 sPSO          -228.628         -322.086          -63.251  iso=    -204.655
        ---------------  ---------------  ---------------
 Total           39.546          -64.074          174.704  iso=      50.059

 --------------
 Nucleus   2C :
 --------------

Diamagnetic contribution to the shielding tensor (ppm) : 
           264.155         -4.954         0.085
            -4.961        262.005         0.192
             0.084          0.187       237.917

Paramagnetic contribution to the shielding tensor (ppm): 
          -265.490        -45.657        -1.419
           -45.644       -285.182        -2.231
            -1.416         -2.223       -63.265

Total shielding tensor (ppm): 
            -1.334        -50.612        -1.334
           -50.605        -23.177        -2.039
            -1.332         -2.035       174.652


 Diagonalized sT*s matrix:
 
 sDSO           268.153          258.009          237.915  iso=     254.692
 sPSO          -228.636         -322.063          -63.238  iso=    -204.646
        ---------------  ---------------  ---------------
 Total           39.517          -64.054          174.677  iso=      50.047

 --------------
 Nucleus   3C :
 --------------

Diamagnetic contribution to the shielding tensor (ppm) : 
           258.242          1.541         0.113
             1.559        267.934         0.278
             0.124          0.277       238.027

Paramagnetic contribution to the shielding tensor (ppm): 
          -319.807         14.328        -1.144
            14.308       -230.864        -1.442
            -1.155         -1.437       -63.353

Total shielding tensor (ppm): 
           -61.564         15.869        -1.031
            15.867         37.069        -1.164
            -1.031         -1.160       174.674


 Diagonalized sT*s matrix:
 
 sDSO           268.178          258.001          238.024  iso=     254.734
 sPSO          -228.632         -322.058          -63.335  iso=    -204.675
        ---------------  ---------------  ---------------
 Total           39.547          -64.057          174.689  iso=      50.060

 --------------
 Nucleus   4C :
 --------------

Diamagnetic contribution to the shielding tensor (ppm) : 
           266.853          3.414         0.174
             3.410        259.328         0.210
             0.175          0.214       237.982

Paramagnetic contribution to the shielding tensor (ppm): 
          -240.727         31.406        -0.600
            31.370       -309.966        -2.073
            -0.601         -2.070       -63.296

Total shielding tensor (ppm): 
            26.127         34.820        -0.426
            34.780        -50.637        -1.862
            -0.426         -1.855       174.686


 Diagonalized sT*s matrix:
 
 sDSO           268.172          258.013          237.979  iso=     254.721
 sPSO          -228.626         -322.088          -63.274  iso=    -204.663
        ---------------  ---------------  ---------------
 Total           39.546          -64.075          174.705  iso=      50.059

 --------------
 Nucleus   5C :
 --------------

Diamagnetic contribution to the shielding tensor (ppm) : 
           264.156         -4.958         0.086
            -4.960        262.005         0.194
             0.083          0.187       237.925

Paramagnetic contribution to the shielding tensor (ppm): 
          -265.491        -45.654        -1.420
           -45.645       -285.184        -2.232
            -1.415         -2.223       -63.270

Total shielding tensor (ppm): 
            -1.335        -50.611        -1.334
           -50.605        -23.178        -2.038
            -1.332         -2.035       174.655


 Diagonalized sT*s matrix:
 
 sDSO           268.155          258.009          237.923  iso=     254.696
 sPSO          -228.639         -322.063          -63.243  iso=    -204.648
        ---------------  ---------------  ---------------
 Total           39.516          -64.054          174.680  iso=      50.047



--------------------------------
CHEMICAL SHIELDING SUMMARY (ppm)
--------------------------------


  Nucleus  Element    Isotropic     Anisotropy
  -------  -------  ------------   ------------
      6       H           24.049          5.302 
      7       H           24.048          5.306 
      8       H           24.050          5.303 
      9       H           24.049          5.302 
     10       H           24.048          5.305 
     11       H           24.051          5.303 
      0       C           50.060        186.946 
      1       C           50.059        186.968 
      2       C           50.047        186.945 
      3       C           50.060        186.945 
      4       C           50.059        186.970 
      5       C           50.047        186.949 



Maximum memory used throughout the entire EPRNMR-calculation: 34.7 MB

Timings for individual modules:

Sum of individual times         ...       14.849 sec (=   0.247 min)
GTO integral calculation        ...        0.407 sec (=   0.007 min)   2.7 %
SCF iterations                  ...        9.290 sec (=   0.155 min)  62.6 %
EPR/NMR calculation             ...        5.153 sec (=   0.086 min)  34.7 %
                             ****ORCA TERMINATED NORMALLY****
TOTAL RUN TIME: 0 days 0 hours 0 minutes 15 seconds 216 msec
