9
Coordinates from ORCA-job opt
  C   1.08996247501657     -0.03382038963460      0.13962970046473
  O   0.36489527822571     -0.40376732159616     -0.75822875798091
  N   2.44168113500689      0.04066274762848      0.07122297407765
  C   3.30005405942340      0.47714261664584      1.15147771302000
  H   0.70320587208099      0.28532768194349      1.12499038191896
  H   2.85533536093808     -0.24683705535691     -0.80254561783976
  H   2.68886106695139      0.65803882221260      2.03466927640299
  H   3.82559556417001      1.40195133622065      0.90464227001963
  H   4.03730918818678     -0.28675843806341      1.40480205991663
